Lab 7: Importing your own data and factors
…
Lumping infrequent categories together with fct_lump()

Which college produced the most number of NBA players? Again, this can be answered using dplyr functions (we should filter out the players who have NA for college):

# no. of players by college (excluding NAs)
df %>% filter(!is.na(college)) %>% 
    group_by(college) %>%
    summarize(count = n()) %>%
    arrange(desc(count))

## # A tibble: 108 x 2
##    college                               count
##    <chr>                                 <int>
##  1 University of Kentucky                   24
##  2 Duke University                          18
##  3 University of Kansas                     14
##  4 Syracuse University                      12
##  5 University of California, Los Angeles    12
##  6 Louisiana State University                9
##  7 University of Arizona                     9
##  8 University of Florida                     9
##  9 Michigan State University                 8
## 10 University of North Carolina              8
## # ... with 98 more rows
…
